sim/waves/multi_cycle_rv.vcd
$date
	Sat Jul 26 19:14:22 2025
$end
$version
	Icarus Verilog
$end
$timescale
	1ps
$end
$scope module multi_cycle_rv_tb $end
$var reg 1 ! clk $end
$var reg 1 " rst_n $end
$scope module dut $end
$var wire 1 ! clk $end
$var wire 1 " rst_n $end
$var wire 32 # pc_next [31:0] $end
$var wire 32 $ pc [31:0] $end
$var wire 32 % instr [31:0] $end
$scope module imm $end
$var wire 30 & word_index [31:2] $end
$var wire 32 ' offset [31:0] $end
$var wire 32 ( instr [31:0] $end
$var wire 32 ) addr [31:0] $end
$var integer 32 * i [31:0] $end
$upscope $end
$scope module pc_adder $end
$var wire 32 + b [31:0] $end
$var wire 32 , sum [31:0] $end
$var wire 32 - a [31:0] $end
$upscope $end
$scope module program_counter $end
$var wire 1 ! clk $end
$var wire 1 . en $end
$var wire 32 / pc_next [31:0] $end
$var wire 1 " rst_n $end
$var wire 32 0 pc [31:0] $end
$var reg 32 1 pc_reg [31:0] $end
$upscope $end
$upscope $end
$upscope $end
$enddefinitions $end
#0
$dumpvars
bx 1
bx 0
bx /
1.
bx -
bx ,
b100 +
b100000000 *
bx )
bx (
bx '
bx &
bx %
bx $
bx #
0"
0!
$end
#5000
b10010011 %
b10010011 (
b0 &
b100 #
b100 ,
b100 /
b0 '
b0 $
b0 )
b0 -
b0 0
b0 1
1!
#10000
0!
#15000
1!
#20000
0!
1"
#25000
b1000000000000100010011 %
b1000000000000100010011 (
b1 &
b1000 #
b1000 ,
b1000 /
b100 '
b100 $
b100 )
b100 -
b100 0
b100 1
1!
#30000
0!
#35000
b10100000000001110010011 %
b10100000000001110010011 (
b10 &
b1100 #
b1100 ,
b1100 /
b1000 '
b1000 $
b1000 )
b1000 -
b1000 0
b1000 1
1!
#40000
0!
#45000
b1010000110000011 %
b1010000110000011 (
b11 &
b10000 #
b10000 ,
b10000 /
b1100 '
b1100 $
b1100 )
b1100 -
b1100 0
b1100 1
1!
#50000
0!
#55000
b11111111110000001000000010010011 %
b11111111110000001000000010010011 (
b100 &
b10100 #
b10100 ,
b10100 /
b10000 '
b10000 $
b10000 )
b10000 -
b10000 0
b10000 1
1!
#60000
0!
#65000
b10011 %
b10011 (
b101 &
b11000 #
b11000 ,
b11000 /
b10100 '
b10100 $
b10100 )
b10100 -
b10100 0
b10100 1
1!
#70000
0!
#75000
b1010001000000011 %
b1010001000000011 (
b110 &
b11100 #
b11100 ,
b11100 /
b11000 '
b11000 $
b11000 )
b11000 -
b11000 0
b11000 1
1!
#80000
0!
#85000
b10011 %
b10011 (
b111 &
b100000 #
b100000 ,
b100000 /
b11100 '
b11100 $
b11100 )
b11100 -
b11100 0
b11100 1
1!
#90000
0!
#95000
b1000 &
b100100 #
b100100 ,
b100100 /
b100000 '
b100000 $
b100000 )
b100000 -
b100000 0
b100000 1
1!
#100000
0!
#105000
b10000011000001010110011 %
b10000011000001010110011 (
b1001 &
b101000 #
b101000 ,
b101000 /
b100100 '
b100100 $
b100100 )
b100100 -
b100100 0
b100100 1
1!
#110000
0!
#115000
b10011 %
b10011 (
b1010 &
b101100 #
b101100 ,
b101100 /
b101000 '
b101000 $
b101000 )
b101000 -
b101000 0
b101000 1
1!
#120000
0!
#125000
b11111110010100001010111000100011 %
b11111110010100001010111000100011 (
b1011 &
b110000 #
b110000 ,
b110000 /
b101100 '
b101100 $
b101100 )
b101100 -
b101100 0
b101100 1
1!
#130000
0!
#135000
b100010000000100010011 %
b100010000000100010011 (
b1100 &
b110100 #
b110100 ,
b110100 /
b110000 '
b110000 $
b110000 )
b110000 -
b110000 0
b110000 1
1!
#140000
0!
#145000
b10011 %
b10011 (
b1101 &
b111000 #
b111000 ,
b111000 /
b110100 '
b110100 $
b110100 )
b110100 -
b110100 0
b110100 1
1!
#150000
0!
#155000
b11111100001000111001101011100011 %
b11111100001000111001101011100011 (
b1110 &
b111100 #
b111100 ,
b111100 /
b111000 '
b111000 $
b111000 )
b111000 -
b111000 0
b111000 1
1!
#160000
0!
#165000
b10011 %
b10011 (
b1111 &
b1000000 #
b1000000 ,
b1000000 /
b111100 '
b111100 $
b111100 )
b111100 -
b111100 0
b111100 1
1!
#170000
0!
#175000
b10000 &
b1000100 #
b1000100 ,
b1000100 /
b1000000 '
b1000000 $
b1000000 )
b1000000 -
b1000000 0
b1000000 1
1!
#180000
0!
#185000
b0 %
b0 (
b10001 &
b1001000 #
b1001000 ,
b1001000 /
b1000100 '
b1000100 $
b1000100 )
b1000100 -
b1000100 0
b1000100 1
1!
#190000
0!
#195000
b10010 &
b1001100 #
b1001100 ,
b1001100 /
b1001000 '
b1001000 $
b1001000 )
b1001000 -
b1001000 0
b1001000 1
1!
#200000
0!
#205000
b10011 &
b1010000 #
b1010000 ,
b1010000 /
b1001100 '
b1001100 $
b1001100 )
b1001100 -
b1001100 0
b1001100 1
1!
#210000
0!
#215000
b10100 &
b1010100 #
b1010100 ,
b1010100 /
b1010000 '
b1010000 $
b1010000 )
b1010000 -
b1010000 0
b1010000 1
1!
