sim/waves/single_cycle_rv.vcd
$date
	Sun Jul 27 19:10:44 2025
$end
$version
	Icarus Verilog
$end
$timescale
	1ps
$end
$scope module single_cycle_rv_tb $end
$var reg 1 ! clk $end
$var reg 1 " rst_n $end
$scope module dut $end
$var wire 1 ! clk $end
$var wire 1 # cs_pc_src $end
$var wire 1 " rst_n $end
$var wire 32 $ writeback_result [31:0] $end
$var wire 32 % srcB [31:0] $end
$var wire 32 & rs2_data [31:0] $end
$var wire 5 ' rs2 [4:0] $end
$var wire 32 ( rs1_data [31:0] $end
$var wire 5 ) rs1 [4:0] $end
$var wire 5 * rd [4:0] $end
$var wire 32 + pc_target [31:0] $end
$var wire 32 , pc_plus4 [31:0] $end
$var wire 32 - pc_next [31:0] $end
$var wire 32 . pc [31:0] $end
$var wire 7 / opcode [6:0] $end
$var wire 32 0 mem_read_data [31:0] $end
$var wire 32 1 instr [31:0] $end
$var wire 32 2 imm_ext [31:0] $end
$var wire 25 3 imm [24:0] $end
$var wire 7 4 funct7 [6:0] $end
$var wire 3 5 funct3 [2:0] $end
$var wire 1 6 cs_zero $end
$var wire 2 7 cs_result_src [1:0] $end
$var wire 1 8 cs_reg_write $end
$var wire 1 9 cs_mem_write $end
$var wire 1 : cs_jump $end
$var wire 2 ; cs_imm_src [1:0] $end
$var wire 1 < cs_branch $end
$var wire 1 = cs_alu_src $end
$var wire 3 > cs_alu_ctrl [2:0] $end
$var wire 1 ? branch_taken $end
$var wire 32 @ alu_result [31:0] $end
$scope module alu_inst $end
$var wire 1 6 zero $end
$var wire 32 A srcB [31:0] $end
$var wire 32 B srcA [31:0] $end
$var wire 3 C alu_ctrl [2:0] $end
$var reg 32 D res [31:0] $end
$upscope $end
$scope module alu_srcB_mux $end
$var wire 1 = sel $end
$var wire 32 E d_out [31:0] $end
$var wire 32 F d_in_1 [31:0] $end
$var wire 32 G d_in_0 [31:0] $end
$upscope $end
$scope module cu_sc $end
$var wire 1 H funct7_5 $end
$var wire 1 I zero $end
$var wire 7 J opcode [6:0] $end
$var wire 3 K funct3 [2:0] $end
$var wire 2 L cs_result_src [1:0] $end
$var wire 1 8 cs_reg_write $end
$var wire 1 9 cs_mem_write $end
$var wire 1 : cs_jump $end
$var wire 2 M cs_imm_src [1:0] $end
$var wire 1 < cs_branch $end
$var wire 1 = cs_alu_src $end
$var wire 3 N cs_alu_ctrl [2:0] $end
$var wire 2 O alu_op [1:0] $end
$scope module alu_decoder $end
$var wire 1 H funct7_5 $end
$var wire 1 P opcode_5 $end
$var wire 2 Q op_func_internal_ctrl [1:0] $end
$var wire 3 R funct3 [2:0] $end
$var wire 2 S alu_op [1:0] $end
$var reg 3 T cs_alu_ctrl [2:0] $end
$upscope $end
$scope module main_decoder $end
$var wire 7 U opcode [6:0] $end
$var reg 2 V alu_op [1:0] $end
$var reg 1 < branch $end
$var reg 1 = cs_alu_src $end
$var reg 2 W cs_imm_src [1:0] $end
$var reg 1 9 cs_mem_write $end
$var reg 1 8 cs_reg_write $end
$var reg 2 X cs_result_src [1:0] $end
$var reg 1 : jump $end
$upscope $end
$upscope $end
$scope module data_mem_instance $end
$var wire 32 Y addr [31:0] $end
$var wire 1 ! clk $end
$var wire 1 9 cs_mem_write $end
$var wire 32 Z write_data [31:0] $end
$var wire 1 [ data_addr $end
$var reg 32 \ read_data [31:0] $end
$var integer 32 ] i [31:0] $end
$upscope $end
$scope module id $end
$var wire 5 ^ rs2 [4:0] $end
$var wire 5 _ rs1 [4:0] $end
$var wire 5 ` rd [4:0] $end
$var wire 7 a opcode [6:0] $end
$var wire 32 b instr [31:0] $end
$var wire 25 c imm [24:0] $end
$var wire 7 d funct7 [6:0] $end
$var wire 3 e funct3 [2:0] $end
$upscope $end
$scope module imm_ext_instance $end
$var wire 2 f cs_imm_src [1:0] $end
$var wire 25 g imm [31:7] $end
$var reg 32 h imm_ext [31:0] $end
$upscope $end
$scope module instr_mem_instance $end
$var wire 30 i word_index [31:2] $end
$var wire 32 j offset [31:0] $end
$var wire 32 k instr [31:0] $end
$var wire 32 l addr [31:0] $end
$var integer 32 m i [31:0] $end
$upscope $end
$scope module pc_adder $end
$var wire 32 n b [31:0] $end
$var wire 32 o sum [31:0] $end
$var wire 32 p a [31:0] $end
$upscope $end
$scope module pc_mux $end
$var wire 32 q d_in_0 [31:0] $end
$var wire 1 # sel $end
$var wire 32 r d_out [31:0] $end
$var wire 32 s d_in_1 [31:0] $end
$upscope $end
$scope module pc_target_adder $end
$var wire 32 t b [31:0] $end
$var wire 32 u sum [31:0] $end
$var wire 32 v a [31:0] $end
$upscope $end
$scope module program_counter $end
$var wire 1 ! clk $end
$var wire 32 w d_in [31:0] $end
$var wire 1 x en $end
$var wire 1 " rst_n $end
$var wire 32 y d_out [31:0] $end
$var reg 32 z reg_val [31:0] $end
$upscope $end
$scope module rf $end
$var wire 1 ! clk $end
$var wire 5 { rd [4:0] $end
$var wire 5 | rs1 [4:0] $end
$var wire 5 } rs2 [4:0] $end
$var wire 1 " rst_n $end
$var wire 1 8 write_enable $end
$var wire 32 ~ write_data [31:0] $end
$var wire 32 !" rs2_data [31:0] $end
$var wire 32 "" rs1_data [31:0] $end
$var integer 32 #" i [31:0] $end
$upscope $end
$scope module wb_mux $end
$var wire 32 $" d_in_0 [31:0] $end
$var wire 32 %" d_in_1 [31:0] $end
$var wire 32 &" d_in_2 [31:0] $end
$var wire 32 '" d_in_3 [31:0] $end
$var wire 2 (" sel [1:0] $end
$var wire 32 )" d_out [31:0] $end
$upscope $end
$upscope $end
$upscope $end
$enddefinitions $end
#0
$dumpvars
b101 )"
b0 ("
b0 '"
b100100 &"
bx %"
b101 $"
b100000 #"
b0 ""
b0 !"
b101 ~
b101 }
b0 |
b101 {
b100000 z
b100000 y
1x
b100100 w
b100000 v
b100101 u
b101 t
b100101 s
b100100 r
b100100 q
b100000 p
b100100 o
b100 n
b100000000 m
b100000 l
b10100000000001010010011 k
b0 j
b0 i
b101 h
b1010000000000101 g
b0 f
b0 e
b0 d
b1010000000000101 c
b10100000000001010010011 b
b10011 a
b101 `
b0 _
b101 ^
b100000000 ]
bx \
1[
b0 Z
b101 Y
b0 X
b0 W
b10 V
b10011 U
b0 T
b10 S
b0 R
b0 Q
0P
b10 O
b0 N
b0 M
b0 L
b0 K
b10011 J
zI
0H
b0 G
b101 F
b101 E
b101 D
b0 C
b0 B
b101 A
b101 @
0?
b0 >
1=
0<
b0 ;
0:
09
18
b0 7
06
b0 5
b0 4
b1010000000000101 3
b101 2
b10100000000001010010011 1
bx 0
b10011 /
b100000 .
b100100 -
b100100 ,
b100101 +
b101 *
b0 )
b0 (
b101 '
b0 &
b101 %
b101 $
0#
0"
1!
$end
#10000
0!
#20000
b0 0
b0 \
b0 %"
b100000 #"
1!
#30000
0!
1"
#40000
0[
b1100100 $
b1100100 ~
b1100100 )"
b1100100 @
b1100100 D
b1100100 Y
b1100100 $"
b1100100 %
b1100100 A
b1100100 E
b1100100 2
b1100100 F
b1100100 h
b1100100 t
b11001000000000000110 3
b11001000000000000110 c
b11001000000000000110 g
b11 4
b11 d
b100 '
b100 ^
b100 }
b110 *
b110 `
b110 {
b110010000000000001100010011 1
b110010000000000001100010011 b
b110010000000000001100010011 k
b101000 -
b101000 r
b101000 w
b1 i
b0 &
b0 G
b0 Z
b0 !"
b10001000 +
b10001000 s
b10001000 u
b101000 ,
b101000 o
b101000 q
b101000 &"
b100 j
b100100 .
b100100 l
b100100 p
b100100 v
b100100 y
b100100 z
1!
#50000
0!
#60000
b110010 $
b110010 ~
b110010 )"
b110010 @
b110010 D
b110010 Y
b110010 $"
b110010 %
b110010 A
b110010 E
b110010 2
b110010 F
b110010 h
b110010 t
b1100100000000000111 3
b1100100000000000111 c
b1100100000000000111 g
b1 4
b1 d
b10010 '
b10010 ^
b10010 }
b111 *
b111 `
b111 {
b11001000000000001110010011 1
b11001000000000001110010011 b
b11001000000000001110010011 k
b101100 -
b101100 r
b101100 w
b10 i
b1011010 +
b1011010 s
b1011010 u
b101100 ,
b101100 o
b101100 q
b101100 &"
b1000 j
b101000 .
b101000 l
b101000 p
b101000 v
b101000 y
b101000 z
1!
#70000
0!
#80000
b110010 $
b110010 ~
b110010 )"
b0 %
b0 A
b0 E
b110010 @
b110010 D
b110010 Y
b110010 $"
b0 2
b0 F
b0 h
b0 t
b1100100 &
b1100100 G
b1100100 Z
b1100100 !"
b110010 (
b110010 B
b110010 ""
b10 Q
1P
b0 O
b0 S
b0 V
19
b1 ;
b1 M
b1 W
b1 f
08
b1100011101000000 3
b1100011101000000 c
b1100011101000000 g
b0 4
b0 d
b110 '
b110 ^
b110 }
b111 )
b111 _
b111 |
b10 5
b10 K
b10 R
b10 e
b0 *
b0 `
b0 {
b100011 /
b100011 J
b100011 U
b100011 a
b11000111010000000100011 1
b11000111010000000100011 b
b11000111010000000100011 k
b110000 -
b110000 r
b110000 w
b11 i
b101100 +
b101100 s
b101100 u
b110000 ,
b110000 o
b110000 q
b110000 &"
b1100 j
b101100 .
b101100 l
b101100 p
b101100 v
b101100 y
b101100 z
1!
#90000
0!
#100000
b0 $
b0 ~
b0 )"
b0 &
b0 G
b0 Z
b0 !"
b0 Q
0P
b1 7
b1 L
b1 X
b1 ("
09
b0 ;
b0 M
b0 W
b0 f
18
b11101000110 3
b11101000110 c
b11101000110 g
b0 '
b0 ^
b0 }
b110 *
b110 `
b110 {
b11 /
b11 J
b11 U
b11 a
b111010001100000011 1
b111010001100000011 b
b111010001100000011 k
b110100 -
b110100 r
b110100 w
b100 i
b110000 +
b110000 s
b110000 u
b110100 ,
b110100 o
b110100 q
b110100 &"
b10000 j
b110000 .
b110000 l
b110000 p
b110000 v
b110000 y
b110000 z
1!
#110000
0!
#120000
b110110 @
b110110 D
b110110 Y
b110110 $"
b100 %
b100 A
b100 E
b100 2
b100 F
b100 h
b100 t
b10 O
b10 S
b10 V
b0 7
b0 L
b0 X
b0 ("
b1000011100000111 3
b1000011100000111 c
b1000011100000111 g
b100 '
b100 ^
b100 }
b0 5
b0 K
b0 R
b0 e
b111 *
b111 `
b111 {
b10011 /
b10011 J
b10011 U
b10011 a
b10000111000001110010011 1
b10000111000001110010011 b
b10000111000001110010011 k
b110110 $
b110110 ~
b110110 )"
b111000 -
b111000 r
b111000 w
b101 i
b111000 +
b111000 s
b111000 u
b111000 ,
b111000 o
b111000 q
b111000 &"
b10100 j
b110100 .
b110100 l
b110100 p
b110100 v
b110100 y
b110100 z
b1100100 0
b1100100 \
b1100100 %"
1!
#130000
0!
#140000
b11111111111111111111111111111011 %
b11111111111111111111111111111011 A
b11111111111111111111111111111011 E
b11111111111111111111111111111011 2
b11111111111111111111111111111011 F
b11111111111111111111111111111011 h
b11111111111111111111111111111011 t
b1 Q
1H
b11111111111111111111111111111011 $
b11111111111111111111111111111011 ~
b11111111111111111111111111111011 )"
b1111111110110011000000110 3
b1111111110110011000000110 c
b1111111110110011000000110 g
b1111111 4
b1111111 d
b11011 '
b11011 ^
b11011 }
b110 )
b110 _
b110 |
b110 *
b110 `
b110 {
b11111111111111111111111111111011 @
b11111111111111111111111111111011 D
b11111111111111111111111111111011 Y
b11111111111111111111111111111011 $"
b11111111101100110000001100010011 1
b11111111101100110000001100010011 b
b11111111101100110000001100010011 k
b0 (
b0 B
b0 ""
b111100 -
b111100 r
b111100 w
b110 i
b110011 +
b110011 s
b110011 u
b111100 ,
b111100 o
b111100 q
b111100 &"
b11000 j
b111000 .
b111000 l
b111000 p
b111000 v
b111000 y
b111000 z
1!
#150000
0!
#160000
0[
b0 %
b0 A
b0 E
b0 2
b0 F
b0 h
b0 t
0H
b11111111111111111111111111111011 &
b11111111111111111111111111111011 G
b11111111111111111111111111111011 Z
b11111111111111111111111111111011 !"
b10 Q
1P
b0 O
b0 S
b0 V
19
b1 ;
b1 M
b1 W
b1 f
08
b1100011101000000 3
b1100011101000000 c
b1100011101000000 g
b0 4
b0 d
b110 '
b110 ^
b110 }
b111 )
b111 _
b111 |
b10 5
b10 K
b10 R
b10 e
b0 *
b0 `
b0 {
b100011 /
b100011 J
b100011 U
b100011 a
b110110 $
b110110 ~
b110110 )"
b11000111010000000100011 1
b11000111010000000100011 b
b11000111010000000100011 k
b110110 @
b110110 D
b110110 Y
b110110 $"
b1000000 -
b1000000 r
b1000000 w
b111 i
b110110 (
b110110 B
b110110 ""
b111100 +
b111100 s
b111100 u
b1000000 ,
b1000000 o
b1000000 q
b1000000 &"
b11100 j
b111100 .
b111100 l
b111100 p
b111100 v
b111100 y
b111100 z
1!
#170000
0!
#180000
0[
b100 $
b100 ~
b100 )"
b11111111111111111111111111111111 %
b11111111111111111111111111111111 A
b11111111111111111111111111111111 E
b100 @
b100 D
b100 Y
b100 $"
b11111111111111111111111111111111 2
b11111111111111111111111111111111 F
b11111111111111111111111111111111 h
b11111111111111111111111111111111 t
1H
b0 &
b0 G
b0 Z
b0 !"
b101 (
b101 B
b101 ""
b1 Q
0P
b10 O
b10 S
b10 V
09
b0 ;
b0 M
b0 W
b0 f
18
b1111111111110010100000101 3
b1111111111110010100000101 c
b1111111111110010100000101 g
b1111111 4
b1111111 d
b11111 '
b11111 ^
b11111 }
b101 )
b101 _
b101 |
b0 5
b0 K
b0 R
b0 e
b101 *
b101 `
b101 {
b10011 /
b10011 J
b10011 U
b10011 a
b11111111111100101000001010010011 1
b11111111111100101000001010010011 b
b11111111111100101000001010010011 k
b1000100 -
b1000100 r
b1000100 w
b1000 i
b111111 +
b111111 s
b111111 u
b1000100 ,
b1000100 o
b1000100 q
b1000100 &"
b100000 j
b1000000 .
b1000000 l
b1000000 p
b1000000 v
b1000000 y
b1000000 z
1!
#190000
0!
#200000
1#
1?
b0 %
b0 A
b0 E
b11111111111111111111111111101100 2
b11111111111111111111111111101100 F
b11111111111111111111111111101100 h
b11111111111111111111111111101100 t
b1 >
b1 C
b1 N
b1 T
b11 Q
1P
b1 O
b1 S
b1 V
1<
0=
b10 ;
b10 M
b10 W
b10 f
08
0[
b1111111000000010100101101 3
b1111111000000010100101101 c
b1111111000000010100101101 g
b0 '
b0 ^
b0 }
b1 5
b1 K
b1 R
b1 e
b1101 *
b1101 `
b1101 {
b1100011 /
b1100011 J
b1100011 U
b1100011 a
b100 $
b100 ~
b100 )"
b11111110000000101001011011100011 1
b11111110000000101001011011100011 b
b11111110000000101001011011100011 k
b100 @
b100 D
b100 Y
b100 $"
b110000 -
b110000 r
b110000 w
b1001 i
b100 (
b100 B
b100 ""
b110000 +
b110000 s
b110000 u
b1001000 ,
b1001000 o
b1001000 q
b1001000 &"
b100100 j
b1000100 .
b1000100 l
b1000100 p
b1000100 v
b1000100 y
b1000100 z
b11111111111111111111111111111011 0
b11111111111111111111111111111011 \
b11111111111111111111111111111011 %"
1!
#210000
0!
#220000
0#
0?
b110110 @
b110110 D
b110110 Y
b110110 $"
b11111111111111111111111111111011 $
b11111111111111111111111111111011 ~
b11111111111111111111111111111011 )"
b0 2
b0 F
b0 h
b0 t
0H
b110110 (
b110110 B
b110110 ""
b0 >
b0 C
b0 N
b0 T
b0 Q
0P
b0 O
b0 S
b0 V
0<
b1 7
b1 L
b1 X
b1 ("
1=
b0 ;
b0 M
b0 W
b0 f
18
b11101000110 3
b11101000110 c
b11101000110 g
b0 4
b0 d
b111 )
b111 _
b111 |
b10 5
b10 K
b10 R
b10 e
b110 *
b110 `
b110 {
b11 /
b11 J
b11 U
b11 a
b111010001100000011 1
b111010001100000011 b
b111010001100000011 k
b110100 -
b110100 r
b110100 w
b100 i
b110000 +
b110000 s
b110000 u
b110100 ,
b110100 o
b110100 q
b110100 &"
b10000 j
b110000 .
b110000 l
b110000 p
b110000 v
b110000 y
b110000 z
1!
#230000
0!
#240000
b111010 @
b111010 D
b111010 Y
b111010 $"
b100 %
b100 A
b100 E
b111010 $
b111010 ~
b111010 )"
b100 2
b100 F
b100 h
b100 t
b10 O
b10 S
b10 V
b0 7
b0 L
b0 X
b0 ("
b1000011100000111 3
b1000011100000111 c
b1000011100000111 g
b100 '
b100 ^
b100 }
b0 5
b0 K
b0 R
b0 e
b111 *
b111 `
b111 {
b10011 /
b10011 J
b10011 U
b10011 a
b10000111000001110010011 1
b10000111000001110010011 b
b10000111000001110010011 k
b111000 -
b111000 r
b111000 w
b101 i
b111000 +
b111000 s
b111000 u
b111000 ,
b111000 o
b111000 q
b111000 &"
b10100 j
b110100 .
b110100 l
b110100 p
b110100 v
b110100 y
b110100 z
1!
#250000
0!
#260000
b11111111111111111111111111111011 %
b11111111111111111111111111111011 A
b11111111111111111111111111111011 E
b11111111111111111111111111111011 2
b11111111111111111111111111111011 F
b11111111111111111111111111111011 h
b11111111111111111111111111111011 t
b1 Q
1H
b11111111111111111111111111110110 $
b11111111111111111111111111110110 ~
b11111111111111111111111111110110 )"
b1111111110110011000000110 3
b1111111110110011000000110 c
b1111111110110011000000110 g
b1111111 4
b1111111 d
b11011 '
b11011 ^
b11011 }
b110 )
b110 _
b110 |
b110 *
b110 `
b110 {
b11111111111111111111111111110110 @
b11111111111111111111111111110110 D
b11111111111111111111111111110110 Y
b11111111111111111111111111110110 $"
b11111111101100110000001100010011 1
b11111111101100110000001100010011 b
b11111111101100110000001100010011 k
b11111111111111111111111111111011 (
b11111111111111111111111111111011 B
b11111111111111111111111111111011 ""
b111100 -
b111100 r
b111100 w
b110 i
b110011 +
b110011 s
b110011 u
b111100 ,
b111100 o
b111100 q
b111100 &"
b11000 j
b111000 .
b111000 l
b111000 p
b111000 v
b111000 y
b111000 z
1!
#270000
0!
#280000
0[
b0 %
b0 A
b0 E
b0 2
b0 F
b0 h
b0 t
0H
b11111111111111111111111111110110 &
b11111111111111111111111111110110 G
b11111111111111111111111111110110 Z
b11111111111111111111111111110110 !"
b10 Q
1P
b0 O
b0 S
b0 V
19
b1 ;
b1 M
b1 W
b1 f
08
b1100011101000000 3
b1100011101000000 c
b1100011101000000 g
b0 4
b0 d
b110 '
b110 ^
b110 }
b111 )
b111 _
b111 |
b10 5
b10 K
b10 R
b10 e
b0 *
b0 `
b0 {
b100011 /
b100011 J
b100011 U
b100011 a
b111010 $
b111010 ~
b111010 )"
b11000111010000000100011 1
b11000111010000000100011 b
b11000111010000000100011 k
b111010 @
b111010 D
b111010 Y
b111010 $"
b1000000 -
b1000000 r
b1000000 w
b111 i
b111010 (
b111010 B
b111010 ""
b111100 +
b111100 s
b111100 u
b1000000 ,
b1000000 o
b1000000 q
b1000000 &"
b11100 j
b111100 .
b111100 l
b111100 p
b111100 v
b111100 y
b111100 z
1!
#290000
0!
#300000
1[
b11 $
b11 ~
b11 )"
b11111111111111111111111111111111 %
b11111111111111111111111111111111 A
b11111111111111111111111111111111 E
b11 @
b11 D
b11 Y
b11 $"
b11111111111111111111111111111111 2
b11111111111111111111111111111111 F
b11111111111111111111111111111111 h
b11111111111111111111111111111111 t
1H
b0 &
b0 G
b0 Z
b0 !"
b100 (
b100 B
b100 ""
b1 Q
0P
b10 O
b10 S
b10 V
09
b0 ;
b0 M
b0 W
b0 f
18
b1111111111110010100000101 3
b1111111111110010100000101 c
b1111111111110010100000101 g
b1111111 4
b1111111 d
b11111 '
b11111 ^
b11111 }
b101 )
b101 _
b101 |
b0 5
b0 K
b0 R
b0 e
b101 *
b101 `
b101 {
b10011 /
b10011 J
b10011 U
b10011 a
b11111111111100101000001010010011 1
b11111111111100101000001010010011 b
b11111111111100101000001010010011 k
b1000100 -
b1000100 r
b1000100 w
b1000 i
b111111 +
b111111 s
b111111 u
b1000100 ,
b1000100 o
b1000100 q
b1000100 &"
b100000 j
b1000000 .
b1000000 l
b1000000 p
b1000000 v
b1000000 y
b1000000 z
1!
#310000
0!
#320000
1#
1?
b0 %
b0 A
b0 E
b11111111111111111111111111101100 2
b11111111111111111111111111101100 F
b11111111111111111111111111101100 h
b11111111111111111111111111101100 t
b1 >
b1 C
b1 N
b1 T
b11 Q
1P
b1 O
b1 S
b1 V
1<
0=
b10 ;
b10 M
b10 W
b10 f
08
1[
b1111111000000010100101101 3
b1111111000000010100101101 c
b1111111000000010100101101 g
b0 '
b0 ^
b0 }
b1 5
b1 K
b1 R
b1 e
b1101 *
b1101 `
b1101 {
b1100011 /
b1100011 J
b1100011 U
b1100011 a
b11 $
b11 ~
b11 )"
b11111110000000101001011011100011 1
b11111110000000101001011011100011 b
b11111110000000101001011011100011 k
b11 @
b11 D
b11 Y
b11 $"
b110000 -
b110000 r
b110000 w
b1001 i
b11 (
b11 B
b11 ""
b110000 +
b110000 s
b110000 u
b1001000 ,
b1001000 o
b1001000 q
b1001000 &"
b100100 j
b1000100 .
b1000100 l
b1000100 p
b1000100 v
b1000100 y
b1000100 z
b0 0
b0 \
b0 %"
1!
#330000
0!
#340000
0[
0#
0?
b111010 @
b111010 D
b111010 Y
b111010 $"
b0 $
b0 ~
b0 )"
b0 2
b0 F
b0 h
b0 t
0H
b111010 (
b111010 B
b111010 ""
b0 >
b0 C
b0 N
b0 T
b0 Q
0P
b0 O
b0 S
b0 V
0<
b1 7
b1 L
b1 X
b1 ("
1=
b0 ;
b0 M
b0 W
b0 f
18
b11101000110 3
b11101000110 c
b11101000110 g
b0 4
b0 d
b111 )
b111 _
b111 |
b10 5
b10 K
b10 R
b10 e
b110 *
b110 `
b110 {
b11 /
b11 J
b11 U
b11 a
b111010001100000011 1
b111010001100000011 b
b111010001100000011 k
b110100 -
b110100 r
b110100 w
b100 i
b110000 +
b110000 s
b110000 u
b110100 ,
b110100 o
b110100 q
b110100 &"
b10000 j
b110000 .
b110000 l
b110000 p
b110000 v
b110000 y
b110000 z
1!
#350000
0!
#360000
b111110 @
b111110 D
b111110 Y
b111110 $"
b100 %
b100 A
b100 E
b100 2
b100 F
b100 h
b100 t
b10 O
b10 S
b10 V
b0 7
b0 L
b0 X
b0 ("
b1000011100000111 3
b1000011100000111 c
b1000011100000111 g
b100 '
b100 ^
b100 }
b0 5
b0 K
b0 R
b0 e
b111 *
b111 `
b111 {
b10011 /
b10011 J
b10011 U
b10011 a
b10000111000001110010011 1
b10000111000001110010011 b
b10000111000001110010011 k
b111110 $
b111110 ~
b111110 )"
b111000 -
b111000 r
b111000 w
b101 i
b111000 +
b111000 s
b111000 u
b111000 ,
b111000 o
b111000 q
b111000 &"
b10100 j
b110100 .
b110100 l
b110100 p
b110100 v
b110100 y
b110100 z
b11111111111111111111111111110110 0
b11111111111111111111111111110110 \
b11111111111111111111111111110110 %"
1!
#370000
0!
#380000
b11111111111111111111111111111011 %
b11111111111111111111111111111011 A
b11111111111111111111111111111011 E
b11111111111111111111111111111011 2
b11111111111111111111111111111011 F
b11111111111111111111111111111011 h
b11111111111111111111111111111011 t
b1 Q
1H
b11111111111111111111111111111011 $
b11111111111111111111111111111011 ~
b11111111111111111111111111111011 )"
b1111111110110011000000110 3
b1111111110110011000000110 c
b1111111110110011000000110 g
b1111111 4
b1111111 d
b11011 '
b11011 ^
b11011 }
b110 )
b110 _
b110 |
b110 *
b110 `
b110 {
b11111111111111111111111111111011 @
b11111111111111111111111111111011 D
b11111111111111111111111111111011 Y
b11111111111111111111111111111011 $"
b11111111101100110000001100010011 1
b11111111101100110000001100010011 b
b11111111101100110000001100010011 k
b0 (
b0 B
b0 ""
b111100 -
b111100 r
b111100 w
b110 i
b110011 +
b110011 s
b110011 u
b111100 ,
b111100 o
b111100 q
b111100 &"
b11000 j
b111000 .
b111000 l
b111000 p
b111000 v
b111000 y
b111000 z
1!
#390000
0!
#400000
0[
b0 %
b0 A
b0 E
b0 2
b0 F
b0 h
b0 t
0H
b11111111111111111111111111111011 &
b11111111111111111111111111111011 G
b11111111111111111111111111111011 Z
b11111111111111111111111111111011 !"
b10 Q
1P
b0 O
b0 S
b0 V
19
b1 ;
b1 M
b1 W
b1 f
08
b1100011101000000 3
b1100011101000000 c
b1100011101000000 g
b0 4
b0 d
b110 '
b110 ^
b110 }
b111 )
b111 _
b111 |
b10 5
b10 K
b10 R
b10 e
b0 *
b0 `
b0 {
b100011 /
b100011 J
b100011 U
b100011 a
b111110 $
b111110 ~
b111110 )"
b11000111010000000100011 1
b11000111010000000100011 b
b11000111010000000100011 k
b111110 @
b111110 D
b111110 Y
b111110 $"
b1000000 -
b1000000 r
b1000000 w
b111 i
b111110 (
b111110 B
b111110 ""
b111100 +
b111100 s
b111100 u
b1000000 ,
b1000000 o
b1000000 q
b1000000 &"
b11100 j
b111100 .
b111100 l
b111100 p
b111100 v
b111100 y
b111100 z
1!
#410000
0!
#420000
0[
b10 $
b10 ~
b10 )"
b11111111111111111111111111111111 %
b11111111111111111111111111111111 A
b11111111111111111111111111111111 E
b10 @
b10 D
b10 Y
b10 $"
b11111111111111111111111111111111 2
b11111111111111111111111111111111 F
b11111111111111111111111111111111 h
b11111111111111111111111111111111 t
1H
b0 &
b0 G
b0 Z
b0 !"
b11 (
b11 B
b11 ""
b1 Q
0P
b10 O
b10 S
b10 V
09
b0 ;
b0 M
b0 W
b0 f
18
b1111111111110010100000101 3
b1111111111110010100000101 c
b1111111111110010100000101 g
b1111111 4
b1111111 d
b11111 '
b11111 ^
b11111 }
b101 )
b101 _
b101 |
b0 5
b0 K
b0 R
b0 e
b101 *
b101 `
b101 {
b10011 /
b10011 J
b10011 U
b10011 a
b11111111111100101000001010010011 1
b11111111111100101000001010010011 b
b11111111111100101000001010010011 k
b1000100 -
b1000100 r
b1000100 w
b1000 i
b111111 +
b111111 s
b111111 u
b1000100 ,
b1000100 o
b1000100 q
b1000100 &"
b100000 j
b1000000 .
b1000000 l
b1000000 p
b1000000 v
b1000000 y
b1000000 z
1!
#430000
0!
#440000
1#
1?
b0 %
b0 A
b0 E
b11111111111111111111111111101100 2
b11111111111111111111111111101100 F
b11111111111111111111111111101100 h
b11111111111111111111111111101100 t
b1 >
b1 C
b1 N
b1 T
b11 Q
1P
b1 O
b1 S
b1 V
1<
0=
b10 ;
b10 M
b10 W
b10 f
08
0[
b1111111000000010100101101 3
b1111111000000010100101101 c
b1111111000000010100101101 g
b0 '
b0 ^
b0 }
b1 5
b1 K
b1 R
b1 e
b1101 *
b1101 `
b1101 {
b1100011 /
b1100011 J
b1100011 U
b1100011 a
b10 $
b10 ~
b10 )"
b11111110000000101001011011100011 1
b11111110000000101001011011100011 b
b11111110000000101001011011100011 k
b10 @
b10 D
b10 Y
b10 $"
b110000 -
b110000 r
b110000 w
b1001 i
b10 (
b10 B
b10 ""
b110000 +
b110000 s
b110000 u
b1001000 ,
b1001000 o
b1001000 q
b1001000 &"
b100100 j
b1000100 .
b1000100 l
b1000100 p
b1000100 v
b1000100 y
b1000100 z
b11111111111111111111111111111011 0
b11111111111111111111111111111011 \
b11111111111111111111111111111011 %"
1!
#450000
0!
#460000
0#
0?
b111110 @
b111110 D
b111110 Y
b111110 $"
b11111111111111111111111111111011 $
b11111111111111111111111111111011 ~
b11111111111111111111111111111011 )"
b0 2
b0 F
b0 h
b0 t
0H
b111110 (
b111110 B
b111110 ""
b0 >
b0 C
b0 N
b0 T
b0 Q
0P
b0 O
b0 S
b0 V
0<
b1 7
b1 L
b1 X
b1 ("
1=
b0 ;
b0 M
b0 W
b0 f
18
b11101000110 3
b11101000110 c
b11101000110 g
b0 4
b0 d
b111 )
b111 _
b111 |
b10 5
b10 K
b10 R
b10 e
b110 *
b110 `
b110 {
b11 /
b11 J
b11 U
b11 a
b111010001100000011 1
b111010001100000011 b
b111010001100000011 k
b110100 -
b110100 r
b110100 w
b100 i
b110000 +
b110000 s
b110000 u
b110100 ,
b110100 o
b110100 q
b110100 &"
b10000 j
b110000 .
b110000 l
b110000 p
b110000 v
b110000 y
b110000 z
1!
#470000
0!
#480000
b1000010 @
b1000010 D
b1000010 Y
b1000010 $"
b100 %
b100 A
b100 E
b1000010 $
b1000010 ~
b1000010 )"
b100 2
b100 F
b100 h
b100 t
b10 O
b10 S
b10 V
b0 7
b0 L
b0 X
b0 ("
b1000011100000111 3
b1000011100000111 c
b1000011100000111 g
b100 '
b100 ^
b100 }
b0 5
b0 K
b0 R
b0 e
b111 *
b111 `
b111 {
b10011 /
b10011 J
b10011 U
b10011 a
b10000111000001110010011 1
b10000111000001110010011 b
b10000111000001110010011 k
b111000 -
b111000 r
b111000 w
b101 i
b111000 +
b111000 s
b111000 u
b111000 ,
b111000 o
b111000 q
b111000 &"
b10100 j
b110100 .
b110100 l
b110100 p
b110100 v
b110100 y
b110100 z
1!
#490000
0!
#500000
b11111111111111111111111111111011 %
b11111111111111111111111111111011 A
b11111111111111111111111111111011 E
b11111111111111111111111111111011 2
b11111111111111111111111111111011 F
b11111111111111111111111111111011 h
b11111111111111111111111111111011 t
b1 Q
1H
b11111111111111111111111111110110 $
b11111111111111111111111111110110 ~
b11111111111111111111111111110110 )"
b1111111110110011000000110 3
b1111111110110011000000110 c
b1111111110110011000000110 g
b1111111 4
b1111111 d
b11011 '
b11011 ^
b11011 }
b110 )
b110 _
b110 |
b110 *
b110 `
b110 {
b11111111111111111111111111110110 @
b11111111111111111111111111110110 D
b11111111111111111111111111110110 Y
b11111111111111111111111111110110 $"
b11111111101100110000001100010011 1
b11111111101100110000001100010011 b
b11111111101100110000001100010011 k
b11111111111111111111111111111011 (
b11111111111111111111111111111011 B
b11111111111111111111111111111011 ""
b111100 -
b111100 r
b111100 w
b110 i
b110011 +
b110011 s
b110011 u
b111100 ,
b111100 o
b111100 q
b111100 &"
b11000 j
b111000 .
b111000 l
b111000 p
b111000 v
b111000 y
b111000 z
1!
#510000
0!
