sim/waves/single_cycle_rv.vcd
$date
	Tue Aug  5 19:43:23 2025
$end
$version
	Icarus Verilog
$end
$timescale
	1ps
$end
$scope module single_cycle_rv_tb $end
$var reg 1 ! clk $end
$var reg 1 " rst_n $end
$var integer 32 # i [31:0] $end
$scope module dut $end
$var wire 1 ! clk $end
$var wire 1 $ cs_pc_src $end
$var wire 1 " rst_n $end
$var wire 32 % writeback_result [31:0] $end
$var wire 32 & srcB [31:0] $end
$var wire 32 ' rs2_data [31:0] $end
$var wire 5 ( rs2 [4:0] $end
$var wire 32 ) rs1_data [31:0] $end
$var wire 5 * rs1 [4:0] $end
$var wire 5 + rd [4:0] $end
$var wire 32 , pc_target [31:0] $end
$var wire 32 - pc_plus4 [31:0] $end
$var wire 32 . pc_next [31:0] $end
$var wire 32 / pc [31:0] $end
$var wire 7 0 opcode [6:0] $end
$var wire 32 1 mem_read_data [31:0] $end
$var wire 32 2 instr [31:0] $end
$var wire 32 3 imm_ext [31:0] $end
$var wire 25 4 imm [24:0] $end
$var wire 7 5 funct7 [6:0] $end
$var wire 3 6 funct3 [2:0] $end
$var wire 1 7 cs_zero $end
$var wire 2 8 cs_result_src [1:0] $end
$var wire 1 9 cs_reg_write $end
$var wire 1 : cs_mem_write $end
$var wire 1 ; cs_jump $end
$var wire 2 < cs_imm_src [1:0] $end
$var wire 1 = cs_branch $end
$var wire 1 > cs_alu_src $end
$var wire 3 ? cs_alu_ctrl [2:0] $end
$var wire 1 @ branch_taken $end
$var wire 32 A alu_result [31:0] $end
$scope module alu_inst $end
$var wire 1 7 zero $end
$var wire 32 B srcB [31:0] $end
$var wire 32 C srcA [31:0] $end
$var wire 3 D alu_ctrl [2:0] $end
$var reg 32 E res [31:0] $end
$upscope $end
$scope module alu_srcB_mux $end
$var wire 1 > sel $end
$var wire 32 F d_out [31:0] $end
$var wire 32 G d_in_1 [31:0] $end
$var wire 32 H d_in_0 [31:0] $end
$upscope $end
$scope module cu_sc $end
$var wire 1 I funct7_5 $end
$var wire 1 J zero $end
$var wire 7 K opcode [6:0] $end
$var wire 3 L funct3 [2:0] $end
$var wire 2 M cs_result_src [1:0] $end
$var wire 1 9 cs_reg_write $end
$var wire 1 : cs_mem_write $end
$var wire 1 ; cs_jump $end
$var wire 2 N cs_imm_src [1:0] $end
$var wire 1 = cs_branch $end
$var wire 1 > cs_alu_src $end
$var wire 3 O cs_alu_ctrl [2:0] $end
$var wire 2 P alu_op [1:0] $end
$scope module alu_decoder $end
$var wire 1 I funct7_5 $end
$var wire 1 Q opcode_5 $end
$var wire 2 R op_func_internal_ctrl [1:0] $end
$var wire 3 S funct3 [2:0] $end
$var wire 2 T alu_op [1:0] $end
$var reg 3 U cs_alu_ctrl [2:0] $end
$upscope $end
$scope module main_decoder $end
$var wire 7 V opcode [6:0] $end
$var reg 2 W alu_op [1:0] $end
$var reg 1 = branch $end
$var reg 1 > cs_alu_src $end
$var reg 2 X cs_imm_src [1:0] $end
$var reg 1 : cs_mem_write $end
$var reg 1 9 cs_reg_write $end
$var reg 2 Y cs_result_src [1:0] $end
$var reg 1 ; jump $end
$upscope $end
$upscope $end
$scope module data_mem_instance $end
$var wire 32 Z addr [31:0] $end
$var wire 1 ! clk $end
$var wire 1 : cs_mem_write $end
$var wire 32 [ read_data [31:0] $end
$var wire 32 \ write_data [31:0] $end
$var wire 8 ] data_addr [7:0] $end
$var integer 32 ^ i [31:0] $end
$upscope $end
$scope module id $end
$var wire 5 _ rs2 [4:0] $end
$var wire 5 ` rs1 [4:0] $end
$var wire 5 a rd [4:0] $end
$var wire 7 b opcode [6:0] $end
$var wire 32 c instr [31:0] $end
$var wire 25 d imm [24:0] $end
$var wire 7 e funct7 [6:0] $end
$var wire 3 f funct3 [2:0] $end
$upscope $end
$scope module imm_ext_instance $end
$var wire 2 g cs_imm_src [1:0] $end
$var wire 25 h imm [31:7] $end
$var reg 32 i imm_ext [31:0] $end
$upscope $end
$scope module instr_mem_instance $end
$var wire 30 j word_index [31:2] $end
$var wire 32 k offset [31:0] $end
$var wire 32 l instr [31:0] $end
$var wire 32 m addr [31:0] $end
$var integer 32 n i [31:0] $end
$upscope $end
$scope module pc_adder $end
$var wire 32 o b [31:0] $end
$var wire 32 p sum [31:0] $end
$var wire 32 q a [31:0] $end
$upscope $end
$scope module pc_mux $end
$var wire 32 r d_in_0 [31:0] $end
$var wire 1 $ sel $end
$var wire 32 s d_out [31:0] $end
$var wire 32 t d_in_1 [31:0] $end
$upscope $end
$scope module pc_target_adder $end
$var wire 32 u b [31:0] $end
$var wire 32 v sum [31:0] $end
$var wire 32 w a [31:0] $end
$upscope $end
$scope module program_counter $end
$var wire 1 ! clk $end
$var wire 32 x d_in [31:0] $end
$var wire 1 y en $end
$var wire 1 " rst_n $end
$var wire 32 z d_out [31:0] $end
$var reg 32 { reg_val [31:0] $end
$upscope $end
$scope module rf $end
$var wire 1 ! clk $end
$var wire 5 | rd [4:0] $end
$var wire 5 } rs1 [4:0] $end
$var wire 5 ~ rs2 [4:0] $end
$var wire 1 " rst_n $end
$var wire 1 9 write_enable $end
$var wire 32 !" write_data [31:0] $end
$var wire 32 "" rs2_data [31:0] $end
$var wire 32 #" rs1_data [31:0] $end
$var integer 32 $" i [31:0] $end
$upscope $end
$scope module wb_mux $end
$var wire 32 %" d_in_0 [31:0] $end
$var wire 32 &" d_in_1 [31:0] $end
$var wire 32 '" d_in_2 [31:0] $end
$var wire 32 (" d_in_3 [31:0] $end
$var wire 2 )" sel [1:0] $end
$var wire 32 *" d_out [31:0] $end
$upscope $end
$upscope $end
$upscope $end
$enddefinitions $end
#0
$dumpvars
b101 *"
b0 )"
b0 ("
b100100 '"
b0 &"
b101 %"
b100000 $"
b0 #"
b0 ""
b101 !"
b101 ~
b0 }
b101 |
b100000 {
b100000 z
1y
b100100 x
b100000 w
b100101 v
b101 u
b100101 t
b100100 s
b100100 r
b100000 q
b100100 p
b100 o
b100000000 n
b100000 m
b10100000000001010010011 l
b0 k
b0 j
b101 i
b1010000000000101 h
b0 g
b0 f
b0 e
b1010000000000101 d
b10100000000001010010011 c
b10011 b
b101 a
b0 `
b101 _
b100000000 ^
b1 ]
b0 \
b0 [
b101 Z
b0 Y
b0 X
b10 W
b10011 V
b0 U
b10 T
b0 S
b0 R
0Q
b10 P
b0 O
b0 N
b0 M
b0 L
b10011 K
zJ
0I
b0 H
b101 G
b101 F
b101 E
b0 D
b0 C
b101 B
b101 A
0@
b0 ?
1>
0=
b0 <
0;
0:
19
b0 8
07
b0 6
b0 5
b1010000000000101 4
b101 3
b10100000000001010010011 2
b0 1
b10011 0
b100000 /
b100100 .
b100100 -
b100101 ,
b101 +
b0 *
b0 )
b101 (
b0 '
b101 &
b101 %
0$
bx #
0"
1!
$end
#10000
0!
#20000
b100000 $"
1!
#30000
0!
b0 #
1"
#40000
b10000000 ]
b1000000000 %
b1000000000 !"
b1000000000 *"
b1000000000 A
b1000000000 E
b1000000000 Z
b1000000000 %"
b1000000000 &
b1000000000 B
b1000000000 F
b1000000000 3
b1000000000 G
b1000000000 i
b1000000000 u
b10000000000000000000110 4
b10000000000000000000110 d
b10000000000000000000110 h
b10000 5
b10000 e
b0 (
b0 _
b0 ~
b110 +
b110 a
b110 |
b100000000000000000001100010011 2
b100000000000000000001100010011 c
b100000000000000000001100010011 l
b101000 .
b101000 s
b101000 x
b1 j
b0 '
b0 H
b0 \
b0 ""
b1000100100 ,
b1000100100 t
b1000100100 v
b101000 -
b101000 p
b101000 r
b101000 '"
b100 k
b100100 /
b100100 m
b100100 q
b100100 w
b100100 z
b100100 {
1!
#50000
0!
b1 #
#60000
b10010 ]
b1001000 %
b1001000 !"
b1001000 *"
b1001000 A
b1001000 E
b1001000 Z
b1001000 %"
b1001000 &
b1001000 B
b1001000 F
b1001000 3
b1001000 G
b1001000 i
b1001000 u
b10010000000000000111 4
b10010000000000000111 d
b10010000000000000111 h
b10 5
b10 e
b1000 (
b1000 _
b1000 ~
b111 +
b111 a
b111 |
b100100000000000001110010011 2
b100100000000000001110010011 c
b100100000000000001110010011 l
b101100 .
b101100 s
b101100 x
b10 j
b1110000 ,
b1110000 t
b1110000 v
b101100 -
b101100 p
b101100 r
b101100 '"
b1000 k
b101000 /
b101000 m
b101000 q
b101000 w
b101000 z
b101000 {
1!
#70000
0!
b10 #
#80000
b10010 ]
b1001000 %
b1001000 !"
b1001000 *"
b0 &
b0 B
b0 F
b1001000 A
b1001000 E
b1001000 Z
b1001000 %"
b0 3
b0 G
b0 i
b0 u
b1000000000 '
b1000000000 H
b1000000000 \
b1000000000 ""
b1001000 )
b1001000 C
b1001000 #"
b10 R
1Q
b0 P
b0 T
b0 W
1:
b1 <
b1 N
b1 X
b1 g
09
b1100011101000000 4
b1100011101000000 d
b1100011101000000 h
b0 5
b0 e
b110 (
b110 _
b110 ~
b111 *
b111 `
b111 }
b10 6
b10 L
b10 S
b10 f
b0 +
b0 a
b0 |
b100011 0
b100011 K
b100011 V
b100011 b
b11000111010000000100011 2
b11000111010000000100011 c
b11000111010000000100011 l
b110000 .
b110000 s
b110000 x
b11 j
b101100 ,
b101100 t
b101100 v
b110000 -
b110000 p
b110000 r
b110000 '"
b1100 k
b101100 /
b101100 m
b101100 q
b101100 w
b101100 z
b101100 {
1!
#90000
0!
b11 #
#100000
b1000000000 %
b1000000000 !"
b1000000000 *"
b0 '
b0 H
b0 \
b0 ""
b0 R
0Q
b1 8
b1 M
b1 Y
b1 )"
0:
b0 <
b0 N
b0 X
b0 g
19
b11101000110 4
b11101000110 d
b11101000110 h
b0 (
b0 _
b0 ~
b110 +
b110 a
b110 |
b11 0
b11 K
b11 V
b11 b
b111010001100000011 2
b111010001100000011 c
b111010001100000011 l
b110100 .
b110100 s
b110100 x
b100 j
b1000000000 1
b1000000000 [
b1000000000 &"
b110000 ,
b110000 t
b110000 v
b110100 -
b110100 p
b110100 r
b110100 '"
b10000 k
b110000 /
b110000 m
b110000 q
b110000 w
b110000 z
b110000 {
1!
#110000
0!
b100 #
#120000
b0 1
b0 [
b0 &"
b10011 ]
b1001100 A
b1001100 E
b1001100 Z
b1001100 %"
b100 &
b100 B
b100 F
b1001100 %
b1001100 !"
b1001100 *"
b100 3
b100 G
b100 i
b100 u
b10 P
b10 T
b10 W
b0 8
b0 M
b0 Y
b0 )"
b1000011100000111 4
b1000011100000111 d
b1000011100000111 h
b100 (
b100 _
b100 ~
b0 6
b0 L
b0 S
b0 f
b111 +
b111 a
b111 |
b10011 0
b10011 K
b10011 V
b10011 b
b10000111000001110010011 2
b10000111000001110010011 c
b10000111000001110010011 l
b111000 .
b111000 s
b111000 x
b101 j
b111000 ,
b111000 t
b111000 v
b111000 -
b111000 p
b111000 r
b111000 '"
b10100 k
b110100 /
b110100 m
b110100 q
b110100 w
b110100 z
b110100 {
1!
#130000
0!
b101 #
#140000
b11111111111111111111111111111100 &
b11111111111111111111111111111100 B
b11111111111111111111111111111100 F
b1111111 ]
b11111111111111111111111111111100 3
b11111111111111111111111111111100 G
b11111111111111111111111111111100 i
b11111111111111111111111111111100 u
b1 R
1I
b111111100 %
b111111100 !"
b111111100 *"
b1111111111000011000000110 4
b1111111111000011000000110 d
b1111111111000011000000110 h
b1111111 5
b1111111 e
b11100 (
b11100 _
b11100 ~
b110 *
b110 `
b110 }
b110 +
b110 a
b110 |
b111111100 A
b111111100 E
b111111100 Z
b111111100 %"
b11111111110000110000001100010011 2
b11111111110000110000001100010011 c
b11111111110000110000001100010011 l
b1000000000 )
b1000000000 C
b1000000000 #"
b111100 .
b111100 s
b111100 x
b110 j
b110100 ,
b110100 t
b110100 v
b111100 -
b111100 p
b111100 r
b111100 '"
b11000 k
b111000 /
b111000 m
b111000 q
b111000 w
b111000 z
b111000 {
1!
#150000
0!
b110 #
#160000
b0 1
b0 [
b0 &"
b0 &
b0 B
b0 F
b0 3
b0 G
b0 i
b0 u
0I
b111111100 '
b111111100 H
b111111100 \
b111111100 ""
b10 R
1Q
b0 P
b0 T
b0 W
1:
b1 <
b1 N
b1 X
b1 g
09
b10011 ]
b1100011101000000 4
b1100011101000000 d
b1100011101000000 h
b0 5
b0 e
b110 (
b110 _
b110 ~
b111 *
b111 `
b111 }
b10 6
b10 L
b10 S
b10 f
b0 +
b0 a
b0 |
b100011 0
b100011 K
b100011 V
b100011 b
b1001100 %
b1001100 !"
b1001100 *"
b11000111010000000100011 2
b11000111010000000100011 c
b11000111010000000100011 l
b1001100 A
b1001100 E
b1001100 Z
b1001100 %"
b1000000 .
b1000000 s
b1000000 x
b111 j
b1001100 )
b1001100 C
b1001100 #"
b111100 ,
b111100 t
b111100 v
b1000000 -
b1000000 p
b1000000 r
b1000000 '"
b11100 k
b111100 /
b111100 m
b111100 q
b111100 w
b111100 z
b111100 {
1!
#170000
0!
b111 #
#180000
b1 ]
b100 %
b100 !"
b100 *"
b11111111111111111111111111111111 &
b11111111111111111111111111111111 B
b11111111111111111111111111111111 F
b100 A
b100 E
b100 Z
b100 %"
b11111111111111111111111111111111 3
b11111111111111111111111111111111 G
b11111111111111111111111111111111 i
b11111111111111111111111111111111 u
1I
b0 '
b0 H
b0 \
b0 ""
b101 )
b101 C
b101 #"
b1 R
0Q
b10 P
b10 T
b10 W
0:
b0 <
b0 N
b0 X
b0 g
19
b1111111111110010100000101 4
b1111111111110010100000101 d
b1111111111110010100000101 h
b1111111 5
b1111111 e
b11111 (
b11111 _
b11111 ~
b101 *
b101 `
b101 }
b0 6
b0 L
b0 S
b0 f
b101 +
b101 a
b101 |
b10011 0
b10011 K
b10011 V
b10011 b
b11111111111100101000001010010011 2
b11111111111100101000001010010011 c
b11111111111100101000001010010011 l
b1000100 .
b1000100 s
b1000100 x
b1000 j
b0 1
b0 [
b0 &"
b111111 ,
b111111 t
b111111 v
b1000100 -
b1000100 p
b1000100 r
b1000100 '"
b100000 k
b1000000 /
b1000000 m
b1000000 q
b1000000 w
b1000000 z
b1000000 {
1!
#190000
0!
b1000 #
#200000
1$
1@
b0 &
b0 B
b0 F
b11111111111111111111111111101100 3
b11111111111111111111111111101100 G
b11111111111111111111111111101100 i
b11111111111111111111111111101100 u
b1 ?
b1 D
b1 O
b1 U
b11 R
1Q
b1 P
b1 T
b1 W
1=
0>
b10 <
b10 N
b10 X
b10 g
09
b1 ]
b1111111000000010100101101 4
b1111111000000010100101101 d
b1111111000000010100101101 h
b0 (
b0 _
b0 ~
b1 6
b1 L
b1 S
b1 f
b1101 +
b1101 a
b1101 |
b1100011 0
b1100011 K
b1100011 V
b1100011 b
b100 %
b100 !"
b100 *"
b11111110000000101001011011100011 2
b11111110000000101001011011100011 c
b11111110000000101001011011100011 l
b100 A
b100 E
b100 Z
b100 %"
b110000 .
b110000 s
b110000 x
b1001 j
b100 )
b100 C
b100 #"
b110000 ,
b110000 t
b110000 v
b1001000 -
b1001000 p
b1001000 r
b1001000 '"
b100100 k
b1000100 /
b1000100 m
b1000100 q
b1000100 w
b1000100 z
b1000100 {
1!
#210000
0!
b1001 #
#220000
b111111100 1
b111111100 [
b111111100 &"
b10011 ]
0$
0@
b1001100 A
b1001100 E
b1001100 Z
b1001100 %"
b111111100 %
b111111100 !"
b111111100 *"
b0 3
b0 G
b0 i
b0 u
0I
b1001100 )
b1001100 C
b1001100 #"
b0 ?
b0 D
b0 O
b0 U
b0 R
0Q
b0 P
b0 T
b0 W
0=
b1 8
b1 M
b1 Y
b1 )"
1>
b0 <
b0 N
b0 X
b0 g
19
b11101000110 4
b11101000110 d
b11101000110 h
b0 5
b0 e
b111 *
b111 `
b111 }
b10 6
b10 L
b10 S
b10 f
b110 +
b110 a
b110 |
b11 0
b11 K
b11 V
b11 b
b111010001100000011 2
b111010001100000011 c
b111010001100000011 l
b110100 .
b110100 s
b110100 x
b100 j
b110000 ,
b110000 t
b110000 v
b110100 -
b110100 p
b110100 r
b110100 '"
b10000 k
b110000 /
b110000 m
b110000 q
b110000 w
b110000 z
b110000 {
1!
#230000
0!
b1010 #
#240000
b0 1
b0 [
b0 &"
b10100 ]
b1010000 A
b1010000 E
b1010000 Z
b1010000 %"
b100 &
b100 B
b100 F
b1010000 %
b1010000 !"
b1010000 *"
b100 3
b100 G
b100 i
b100 u
b10 P
b10 T
b10 W
b0 8
b0 M
b0 Y
b0 )"
b1000011100000111 4
b1000011100000111 d
b1000011100000111 h
b100 (
b100 _
b100 ~
b0 6
b0 L
b0 S
b0 f
b111 +
b111 a
b111 |
b10011 0
b10011 K
b10011 V
b10011 b
b10000111000001110010011 2
b10000111000001110010011 c
b10000111000001110010011 l
b111000 .
b111000 s
b111000 x
b101 j
b111000 ,
b111000 t
b111000 v
b111000 -
b111000 p
b111000 r
b111000 '"
b10100 k
b110100 /
b110100 m
b110100 q
b110100 w
b110100 z
b110100 {
1!
#250000
0!
b1011 #
#260000
b11111111111111111111111111111100 &
b11111111111111111111111111111100 B
b11111111111111111111111111111100 F
b1111110 ]
b11111111111111111111111111111100 3
b11111111111111111111111111111100 G
b11111111111111111111111111111100 i
b11111111111111111111111111111100 u
b1 R
1I
b111111000 %
b111111000 !"
b111111000 *"
b1111111111000011000000110 4
b1111111111000011000000110 d
b1111111111000011000000110 h
b1111111 5
b1111111 e
b11100 (
b11100 _
b11100 ~
b110 *
b110 `
b110 }
b110 +
b110 a
b110 |
b111111000 A
b111111000 E
b111111000 Z
b111111000 %"
b11111111110000110000001100010011 2
b11111111110000110000001100010011 c
b11111111110000110000001100010011 l
b111111100 )
b111111100 C
b111111100 #"
b111100 .
b111100 s
b111100 x
b110 j
b110100 ,
b110100 t
b110100 v
b111100 -
b111100 p
b111100 r
b111100 '"
b11000 k
b111000 /
b111000 m
b111000 q
b111000 w
b111000 z
b111000 {
1!
#270000
0!
b1100 #
#280000
b0 1
b0 [
b0 &"
b0 &
b0 B
b0 F
b0 3
b0 G
b0 i
b0 u
0I
b111111000 '
b111111000 H
b111111000 \
b111111000 ""
b10 R
1Q
b0 P
b0 T
b0 W
1:
b1 <
b1 N
b1 X
b1 g
09
b10100 ]
b1100011101000000 4
b1100011101000000 d
b1100011101000000 h
b0 5
b0 e
b110 (
b110 _
b110 ~
b111 *
b111 `
b111 }
b10 6
b10 L
b10 S
b10 f
b0 +
b0 a
b0 |
b100011 0
b100011 K
b100011 V
b100011 b
b1010000 %
b1010000 !"
b1010000 *"
b11000111010000000100011 2
b11000111010000000100011 c
b11000111010000000100011 l
b1010000 A
b1010000 E
b1010000 Z
b1010000 %"
b1000000 .
b1000000 s
b1000000 x
b111 j
b1010000 )
b1010000 C
b1010000 #"
b111100 ,
b111100 t
b111100 v
b1000000 -
b1000000 p
b1000000 r
b1000000 '"
b11100 k
b111100 /
b111100 m
b111100 q
b111100 w
b111100 z
b111100 {
1!
#290000
0!
b1101 #
#300000
b0 ]
b11 %
b11 !"
b11 *"
b11111111111111111111111111111111 &
b11111111111111111111111111111111 B
b11111111111111111111111111111111 F
b11 A
b11 E
b11 Z
b11 %"
b11111111111111111111111111111111 3
b11111111111111111111111111111111 G
b11111111111111111111111111111111 i
b11111111111111111111111111111111 u
1I
b0 '
b0 H
b0 \
b0 ""
b100 )
b100 C
b100 #"
b1 R
0Q
b10 P
b10 T
b10 W
0:
b0 <
b0 N
b0 X
b0 g
19
b1111111111110010100000101 4
b1111111111110010100000101 d
b1111111111110010100000101 h
b1111111 5
b1111111 e
b11111 (
b11111 _
b11111 ~
b101 *
b101 `
b101 }
b0 6
b0 L
b0 S
b0 f
b101 +
b101 a
b101 |
b10011 0
b10011 K
b10011 V
b10011 b
b11111111111100101000001010010011 2
b11111111111100101000001010010011 c
b11111111111100101000001010010011 l
b1000100 .
b1000100 s
b1000100 x
b1000 j
b0 1
b0 [
b0 &"
b111111 ,
b111111 t
b111111 v
b1000100 -
b1000100 p
b1000100 r
b1000100 '"
b100000 k
b1000000 /
b1000000 m
b1000000 q
b1000000 w
b1000000 z
b1000000 {
1!
#310000
0!
b1110 #
#320000
1$
1@
b0 &
b0 B
b0 F
b11111111111111111111111111101100 3
b11111111111111111111111111101100 G
b11111111111111111111111111101100 i
b11111111111111111111111111101100 u
b1 ?
b1 D
b1 O
b1 U
b11 R
1Q
b1 P
b1 T
b1 W
1=
0>
b10 <
b10 N
b10 X
b10 g
09
b1111111000000010100101101 4
b1111111000000010100101101 d
b1111111000000010100101101 h
b0 (
b0 _
b0 ~
b1 6
b1 L
b1 S
b1 f
b1101 +
b1101 a
b1101 |
b1100011 0
b1100011 K
b1100011 V
b1100011 b
b11 %
b11 !"
b11 *"
b11111110000000101001011011100011 2
b11111110000000101001011011100011 c
b11111110000000101001011011100011 l
b11 A
b11 E
b11 Z
b11 %"
b110000 .
b110000 s
b110000 x
b1001 j
b11 )
b11 C
b11 #"
b110000 ,
b110000 t
b110000 v
b1001000 -
b1001000 p
b1001000 r
b1001000 '"
b100100 k
b1000100 /
b1000100 m
b1000100 q
b1000100 w
b1000100 z
b1000100 {
1!
#330000
0!
b1111 #
#340000
b111111000 1
b111111000 [
b111111000 &"
b10100 ]
0$
0@
b1010000 A
b1010000 E
b1010000 Z
b1010000 %"
b111111000 %
b111111000 !"
b111111000 *"
b0 3
b0 G
b0 i
b0 u
0I
b1010000 )
b1010000 C
b1010000 #"
b0 ?
b0 D
b0 O
b0 U
b0 R
0Q
b0 P
b0 T
b0 W
0=
b1 8
b1 M
b1 Y
b1 )"
1>
b0 <
b0 N
b0 X
b0 g
19
b11101000110 4
b11101000110 d
b11101000110 h
b0 5
b0 e
b111 *
b111 `
b111 }
b10 6
b10 L
b10 S
b10 f
b110 +
b110 a
b110 |
b11 0
b11 K
b11 V
b11 b
b111010001100000011 2
b111010001100000011 c
b111010001100000011 l
b110100 .
b110100 s
b110100 x
b100 j
b110000 ,
b110000 t
b110000 v
b110100 -
b110100 p
b110100 r
b110100 '"
b10000 k
b110000 /
b110000 m
b110000 q
b110000 w
b110000 z
b110000 {
1!
#350000
0!
b10000 #
#360000
b0 1
b0 [
b0 &"
b10101 ]
b1010100 A
b1010100 E
b1010100 Z
b1010100 %"
b100 &
b100 B
b100 F
b1010100 %
b1010100 !"
b1010100 *"
b100 3
b100 G
b100 i
b100 u
b10 P
b10 T
b10 W
b0 8
b0 M
b0 Y
b0 )"
b1000011100000111 4
b1000011100000111 d
b1000011100000111 h
b100 (
b100 _
b100 ~
b0 6
b0 L
b0 S
b0 f
b111 +
b111 a
b111 |
b10011 0
b10011 K
b10011 V
b10011 b
b10000111000001110010011 2
b10000111000001110010011 c
b10000111000001110010011 l
b111000 .
b111000 s
b111000 x
b101 j
b111000 ,
b111000 t
b111000 v
b111000 -
b111000 p
b111000 r
b111000 '"
b10100 k
b110100 /
b110100 m
b110100 q
b110100 w
b110100 z
b110100 {
1!
#370000
0!
b10001 #
#380000
b11111111111111111111111111111100 &
b11111111111111111111111111111100 B
b11111111111111111111111111111100 F
b1111101 ]
b11111111111111111111111111111100 3
b11111111111111111111111111111100 G
b11111111111111111111111111111100 i
b11111111111111111111111111111100 u
b1 R
1I
b111110100 %
b111110100 !"
b111110100 *"
b1111111111000011000000110 4
b1111111111000011000000110 d
b1111111111000011000000110 h
b1111111 5
b1111111 e
b11100 (
b11100 _
b11100 ~
b110 *
b110 `
b110 }
b110 +
b110 a
b110 |
b111110100 A
b111110100 E
b111110100 Z
b111110100 %"
b11111111110000110000001100010011 2
b11111111110000110000001100010011 c
b11111111110000110000001100010011 l
b111111000 )
b111111000 C
b111111000 #"
b111100 .
b111100 s
b111100 x
b110 j
b110100 ,
b110100 t
b110100 v
b111100 -
b111100 p
b111100 r
b111100 '"
b11000 k
b111000 /
b111000 m
b111000 q
b111000 w
b111000 z
b111000 {
1!
#390000
0!
b10010 #
#400000
b0 1
b0 [
b0 &"
b0 &
b0 B
b0 F
b0 3
b0 G
b0 i
b0 u
0I
b111110100 '
b111110100 H
b111110100 \
b111110100 ""
b10 R
1Q
b0 P
b0 T
b0 W
1:
b1 <
b1 N
b1 X
b1 g
09
b10101 ]
b1100011101000000 4
b1100011101000000 d
b1100011101000000 h
b0 5
b0 e
b110 (
b110 _
b110 ~
b111 *
b111 `
b111 }
b10 6
b10 L
b10 S
b10 f
b0 +
b0 a
b0 |
b100011 0
b100011 K
b100011 V
b100011 b
b1010100 %
b1010100 !"
b1010100 *"
b11000111010000000100011 2
b11000111010000000100011 c
b11000111010000000100011 l
b1010100 A
b1010100 E
b1010100 Z
b1010100 %"
b1000000 .
b1000000 s
b1000000 x
b111 j
b1010100 )
b1010100 C
b1010100 #"
b111100 ,
b111100 t
b111100 v
b1000000 -
b1000000 p
b1000000 r
b1000000 '"
b11100 k
b111100 /
b111100 m
b111100 q
b111100 w
b111100 z
b111100 {
1!
#410000
0!
b10011 #
#420000
b0 ]
b10 %
b10 !"
b10 *"
b11111111111111111111111111111111 &
b11111111111111111111111111111111 B
b11111111111111111111111111111111 F
b10 A
b10 E
b10 Z
b10 %"
b11111111111111111111111111111111 3
b11111111111111111111111111111111 G
b11111111111111111111111111111111 i
b11111111111111111111111111111111 u
1I
b0 '
b0 H
b0 \
b0 ""
b11 )
b11 C
b11 #"
b1 R
0Q
b10 P
b10 T
b10 W
0:
b0 <
b0 N
b0 X
b0 g
19
b1111111111110010100000101 4
b1111111111110010100000101 d
b1111111111110010100000101 h
b1111111 5
b1111111 e
b11111 (
b11111 _
b11111 ~
b101 *
b101 `
b101 }
b0 6
b0 L
b0 S
b0 f
b101 +
b101 a
b101 |
b10011 0
b10011 K
b10011 V
b10011 b
b11111111111100101000001010010011 2
b11111111111100101000001010010011 c
b11111111111100101000001010010011 l
b1000100 .
b1000100 s
b1000100 x
b1000 j
b0 1
b0 [
b0 &"
b111111 ,
b111111 t
b111111 v
b1000100 -
b1000100 p
b1000100 r
b1000100 '"
b100000 k
b1000000 /
b1000000 m
b1000000 q
b1000000 w
b1000000 z
b1000000 {
1!
#430000
0!
b10100 #
#440000
1$
1@
b0 &
b0 B
b0 F
b11111111111111111111111111101100 3
b11111111111111111111111111101100 G
b11111111111111111111111111101100 i
b11111111111111111111111111101100 u
b1 ?
b1 D
b1 O
b1 U
b11 R
1Q
b1 P
b1 T
b1 W
1=
0>
b10 <
b10 N
b10 X
b10 g
09
b1111111000000010100101101 4
b1111111000000010100101101 d
b1111111000000010100101101 h
b0 (
b0 _
b0 ~
b1 6
b1 L
b1 S
b1 f
b1101 +
b1101 a
b1101 |
b1100011 0
b1100011 K
b1100011 V
b1100011 b
b10 %
b10 !"
b10 *"
b11111110000000101001011011100011 2
b11111110000000101001011011100011 c
b11111110000000101001011011100011 l
b10 A
b10 E
b10 Z
b10 %"
b110000 .
b110000 s
b110000 x
b1001 j
b10 )
b10 C
b10 #"
b110000 ,
b110000 t
b110000 v
b1001000 -
b1001000 p
b1001000 r
b1001000 '"
b100100 k
b1000100 /
b1000100 m
b1000100 q
b1000100 w
b1000100 z
b1000100 {
1!
#450000
0!
b10101 #
#460000
b111110100 1
b111110100 [
b111110100 &"
b10101 ]
0$
0@
b1010100 A
b1010100 E
b1010100 Z
b1010100 %"
b111110100 %
b111110100 !"
b111110100 *"
b0 3
b0 G
b0 i
b0 u
0I
b1010100 )
b1010100 C
b1010100 #"
b0 ?
b0 D
b0 O
b0 U
b0 R
0Q
b0 P
b0 T
b0 W
0=
b1 8
b1 M
b1 Y
b1 )"
1>
b0 <
b0 N
b0 X
b0 g
19
b11101000110 4
b11101000110 d
b11101000110 h
b0 5
b0 e
b111 *
b111 `
b111 }
b10 6
b10 L
b10 S
b10 f
b110 +
b110 a
b110 |
b11 0
b11 K
b11 V
b11 b
b111010001100000011 2
b111010001100000011 c
b111010001100000011 l
b110100 .
b110100 s
b110100 x
b100 j
b110000 ,
b110000 t
b110000 v
b110100 -
b110100 p
b110100 r
b110100 '"
b10000 k
b110000 /
b110000 m
b110000 q
b110000 w
b110000 z
b110000 {
1!
#470000
0!
b10110 #
#480000
b0 1
b0 [
b0 &"
b10110 ]
b1011000 A
b1011000 E
b1011000 Z
b1011000 %"
b100 &
b100 B
b100 F
b1011000 %
b1011000 !"
b1011000 *"
b100 3
b100 G
b100 i
b100 u
b10 P
b10 T
b10 W
b0 8
b0 M
b0 Y
b0 )"
b1000011100000111 4
b1000011100000111 d
b1000011100000111 h
b100 (
b100 _
b100 ~
b0 6
b0 L
b0 S
b0 f
b111 +
b111 a
b111 |
b10011 0
b10011 K
b10011 V
b10011 b
b10000111000001110010011 2
b10000111000001110010011 c
b10000111000001110010011 l
b111000 .
b111000 s
b111000 x
b101 j
b111000 ,
b111000 t
b111000 v
b111000 -
b111000 p
b111000 r
b111000 '"
b10100 k
b110100 /
b110100 m
b110100 q
b110100 w
b110100 z
b110100 {
1!
#490000
0!
b10111 #
#500000
b11111111111111111111111111111100 &
b11111111111111111111111111111100 B
b11111111111111111111111111111100 F
b1111100 ]
b11111111111111111111111111111100 3
b11111111111111111111111111111100 G
b11111111111111111111111111111100 i
b11111111111111111111111111111100 u
b1 R
1I
b111110000 %
b111110000 !"
b111110000 *"
b1111111111000011000000110 4
b1111111111000011000000110 d
b1111111111000011000000110 h
b1111111 5
b1111111 e
b11100 (
b11100 _
b11100 ~
b110 *
b110 `
b110 }
b110 +
b110 a
b110 |
b111110000 A
b111110000 E
b111110000 Z
b111110000 %"
b11111111110000110000001100010011 2
b11111111110000110000001100010011 c
b11111111110000110000001100010011 l
b111110100 )
b111110100 C
b111110100 #"
b111100 .
b111100 s
b111100 x
b110 j
b110100 ,
b110100 t
b110100 v
b111100 -
b111100 p
b111100 r
b111100 '"
b11000 k
b111000 /
b111000 m
b111000 q
b111000 w
b111000 z
b111000 {
1!
#510000
0!
b11000 #
